…
    # Transform the CSV data into a JSON file.
    # DuckDB has some dataframe methods - df().
    outfile = "data/postal_codes/postal_codes_nc.json"
    rel.df().to_json(outfile, orient="records", lines=True)
    print(f"file written: {outfile}")
```

#### python main-wrangling.py postal_codes_nc_csv_to_json

```
$ python main-wrangling.py postal_codes_nc_csv_to_json

┌───────┬───────────┬────────────┬──────────────┬─────────────┬───────────┬────────────┐
│  id   │ postal_cd │ country_cd │  city_name   │ state_abbrv │ latitude  │ longitude  │
│ int64 │   int64   │  varchar   │   varchar    │   varchar   │  double   │   double   │
├───────┼───────────┼────────────┼──────────────┼─────────────┼───────────┼────────────┤
│ 10949 │     27006 │ US         │ Advance      │ NC          │ 35.944562 │ -80.437631 │
│ 10950 │     27007 │ US         │ Ararat       │ NC          │ 36.376884 │ -80.596265 │
│ 10951 │     27009 │ US         │ Belews Creek │ NC          │  36.22393 │ -80.080018 │
│ 10952 │     27010 │ US         │ Bethania     │ NC          │   36.1822 │   -80.3384 │
│ 10953 │     27011 │ US         │ Boonville    │ NC          │ 36.209184 │ -80.693772 │
│ 10954 │     27012 │ US         │ Clemmons     │ NC          │ 36.004018 │ -80.371445 │
│ 10955 │     27013 │ US         │ Cleveland    │ NC          │ 35.763468 │  -80.70373 │
│ 10956 │     27014 │ US         │ Cooleemee    │ NC          │ 35.811967 │ -80.554258 │
│ 10957 │     27016 │ US         │ Danbury      │ NC          │ 36.444588 │  -80.21657 │
│ 10958 │     27017 │ US         │ Dobson       │ NC          │ 36.375294 │ -80.804534 │
│   ·   │       ·   │ ·          │   ·          │ ·           │      ·    │       ·    │
│   ·   │       ·   │ ·          │   ·          │ ·           │      ·    │       ·    │
│   ·   │       ·   │ ·          │   ·          │ ·           │      ·    │       ·    │
│ 12019 │     28814 │ US         │ Asheville    │ NC          │   35.6006 │   -82.5545 │
│ 12020 │     28815 │ US         │ Asheville    │ NC          │   35.6006 │   -82.5545 │
│ 12021 │     28816 │ US         │ Asheville    │ NC          │   35.6006 │   -82.5545 │
│ 12022 │     28901 │ US         │ Andrews      │ NC          │ 35.197799 │ -83.810292 │
│ 12023 │     28902 │ US         │ Brasstown    │ NC          │ 35.028354 │ -83.962106 │
│ 12024 │     28903 │ US         │ Culberson    │ NC          │   34.9919 │   -84.1679 │
│ 12025 │     28904 │ US         │ Hayesville   │ NC          │ 35.073862 │ -83.705197 │
│ 12026 │     28905 │ US         │ Marble       │ NC          │ 35.161114 │ -83.927575 │
│ 12027 │     28906 │ US         │ Murphy       │ NC          │ 35.139744 │ -84.103558 │
│ 12028 │     28909 │ US         │ Warne        │ NC          │ 35.011807 │ -83.918818 │
├───────┴───────────┴────────────┴──────────────┴─────────────┴───────────┴────────────┤
│ 1080 rows (20 shown)                                                       7 columns │
└──────────────────────────────────────────────────────────────────────────────────────┘
…
